<?xml version="1.0" encoding="UTF-8"?>
<svg xmlns="http://www.w3.org/2000/svg" xmlns:xlink="http://www.w3.org/1999/xlink" viewBox="0 0 64 64" width="64px" height="64px">
<g id="surface64645276">
<path style=" stroke:none;fill-rule:nonzero;fill:rgb(100%,100%,100%);fill-opacity:1;" d="M 31.828125 0.03125 C 30.96875 0.0742188 30.152344 0.414062 29.519531 1 C 22.761719 7.660156 9 30.371094 9 41 C 9 41.699219 9.03125 42.398438 9.09375 43.089844 L 11.085938 42.910156 C 11.027344 42.28125 11 41.636719 11 41 C 11 31.015625 24.53125 8.726562 30.921875 2.433594 C 31.53125 1.875 32.464844 1.875 33.074219 2.433594 C 36.210938 5.847656 39 9.5625 41.402344 13.53125 L 43.089844 12.460938 C 40.617188 8.359375 37.730469 4.519531 34.480469 1 C 33.761719 0.335938 32.808594 -0.0117188 31.828125 0.0351562 Z M 44.34375 14.480469 L 42.636719 15.519531 C 43.03125 16.175781 43.425781 16.839844 43.816406 17.507812 L 45.542969 16.496094 C 45.144531 15.8125 44.742188 15.144531 44.34375 14.480469 Z M 46.695312 18.511719 L 44.949219 19.488281 C 50.066406 28.628906 53 36.46875 53 41 C 53.011719 51.863281 44.734375 60.945312 33.917969 61.9375 C 23.097656 62.929688 13.308594 55.503906 11.347656 44.816406 L 9.378906 45.179688 C 11.390625 56.089844 20.90625 64.007812 32 64 C 44.695312 63.984375 54.984375 53.695312 55 41 C 55 34.339844 49.800781 24.050781 46.695312 18.511719 Z M 24.792969 26.003906 C 22.070312 26.113281 19.933594 28.378906 19.992188 31.105469 C 20.046875 33.828125 22.273438 36.003906 25 36 C 27.761719 35.996094 29.996094 33.761719 30 31 C 30 29.636719 29.445312 28.335938 28.460938 27.390625 C 27.480469 26.449219 26.152344 25.949219 24.792969 26.003906 Z M 43.292969 26.292969 L 19.292969 50.292969 L 20.707031 51.707031 L 44.707031 27.707031 Z M 25 28 C 26.65625 28 28 29.34375 28 31 C 28 32.65625 26.65625 34 25 34 C 23.34375 34 22 32.65625 22 31 C 22 29.34375 23.34375 28 25 28 Z M 38.792969 42.003906 C 36.070312 42.113281 33.933594 44.378906 33.992188 47.105469 C 34.046875 49.828125 36.273438 52.003906 39 52 C 41.761719 51.996094 43.996094 49.761719 44 47 C 44 45.636719 43.445312 44.335938 42.460938 43.390625 C 41.480469 42.449219 40.152344 41.949219 38.792969 42.003906 Z M 39 44 C 40.65625 44 42 45.34375 42 47 C 42 48.65625 40.65625 50 39 50 C 37.34375 50 36 48.65625 36 47 C 36 45.34375 37.34375 44 39 44 Z M 39 44 "/>
</g>
</svg>
