<?xml version="1.0" encoding="UTF-8"?>
<svg xmlns="http://www.w3.org/2000/svg" xmlns:xlink="http://www.w3.org/1999/xlink" viewBox="0 0 80 80" width="80px" height="80px">
<g id="surface64656909">
<path style=" stroke:none;fill-rule:nonzero;fill:rgb(100%,100%,100%);fill-opacity:1;" d="M 40 7 C 25.652344 7 14 18.652344 14 33 C 14 44.921875 22.046875 54.976562 33 58.035156 L 33 61 L 7 61 L 7 63 L 33 63 L 33 71 L 7 71 L 7 73 L 33 73 C 33 74.09375 33.90625 75 35 75 L 45 75 C 46.09375 75 47 74.09375 47 73 L 73 73 L 73 71 L 47 71 L 47 63 L 73 63 L 73 61 L 47 61 L 47 58.035156 C 57.953125 54.976562 66 44.921875 66 33 C 66 18.652344 54.347656 7 40 7 Z M 40 9 C 53.265625 9 64 19.734375 64 33 C 64 46.265625 53.265625 57 40 57 C 26.734375 57 16 46.265625 16 33 C 16 19.734375 26.734375 9 40 9 Z M 40 12.011719 C 39.738281 12.011719 39.472656 12.105469 39.289062 12.289062 C 39.109375 12.476562 39 12.738281 39 13 C 39 13.269531 39.097656 13.519531 39.289062 13.710938 C 39.480469 13.898438 39.730469 14 40 14 C 40.269531 14 40.519531 13.898438 40.710938 13.710938 C 40.902344 13.519531 41 13.269531 41 13 C 41 12.738281 40.890625 12.476562 40.710938 12.289062 C 40.527344 12.105469 40.261719 12.011719 40 12.011719 Z M 34.957031 12.6875 C 34.828125 12.667969 34.691406 12.675781 34.5625 12.710938 C 34.019531 12.851562 33.710938 13.398438 33.847656 13.941406 C 33.96875 14.378906 34.371094 14.679688 34.8125 14.679688 C 34.902344 14.679688 34.992188 14.671875 35.070312 14.640625 C 35.609375 14.5 35.917969 13.949219 35.78125 13.421875 C 35.675781 13.015625 35.339844 12.738281 34.957031 12.6875 Z M 45.042969 12.6875 C 44.660156 12.742188 44.324219 13.023438 44.21875 13.421875 C 44.070312 13.953125 44.390625 14.5 44.917969 14.652344 L 44.917969 14.640625 C 45.011719 14.671875 45.097656 14.679688 45.1875 14.679688 C 45.628906 14.679688 46.03125 14.378906 46.152344 13.941406 C 46.289062 13.398438 45.96875 12.851562 45.4375 12.710938 C 45.308594 12.675781 45.171875 12.667969 45.042969 12.6875 Z M 29.867188 14.683594 C 29.738281 14.699219 29.609375 14.742188 29.488281 14.8125 C 29.019531 15.089844 28.851562 15.699219 29.128906 16.179688 C 29.3125 16.5 29.648438 16.679688 30 16.679688 C 30.171875 16.679688 30.339844 16.640625 30.5 16.539062 C 30.980469 16.269531 31.140625 15.648438 30.859375 15.179688 C 30.648438 14.820312 30.253906 14.636719 29.867188 14.683594 Z M 50.128906 14.683594 C 49.742188 14.636719 49.34375 14.820312 49.140625 15.179688 C 48.859375 15.648438 49.019531 16.269531 49.5 16.539062 C 49.660156 16.628906 49.828125 16.679688 50 16.679688 C 50.351562 16.679688 50.679688 16.5 50.867188 16.179688 C 51.148438 15.699219 50.980469 15.089844 50.5 14.8125 C 50.382812 14.742188 50.253906 14.699219 50.128906 14.683594 Z M 40 16 C 39.449219 16 39 16.449219 39 17 C 39 17.550781 39.449219 18 40 18 C 40.550781 18 41 17.550781 41 17 C 41 16.449219 40.550781 16 40 16 Z M 25.855469 17.859375 C 25.601562 17.859375 25.34375 17.957031 25.152344 18.152344 C 24.761719 18.539062 24.761719 19.171875 25.152344 19.5625 C 25.351562 19.761719 25.597656 19.859375 25.859375 19.859375 C 26.109375 19.859375 26.371094 19.761719 26.5625 19.5625 C 26.960938 19.171875 26.960938 18.542969 26.5625 18.152344 C 26.367188 17.957031 26.109375 17.859375 25.855469 17.859375 Z M 54.144531 17.859375 C 53.890625 17.859375 53.632812 17.957031 53.4375 18.152344 C 53.039062 18.539062 53.039062 19.171875 53.4375 19.5625 C 53.628906 19.761719 53.890625 19.859375 54.140625 19.859375 C 54.402344 19.859375 54.648438 19.761719 54.847656 19.5625 C 55.238281 19.171875 55.238281 18.542969 54.847656 18.152344 C 54.65625 17.957031 54.398438 17.859375 54.144531 17.859375 Z M 29 21 C 28.449219 21 28 21.449219 28 22 C 28 22.550781 28.449219 23 29 23 C 29.550781 23 30 22.550781 30 22 C 30 21.449219 29.550781 21 29 21 Z M 50.945312 21.003906 C 50.738281 21.011719 50.539062 21.089844 50.375 21.21875 C 50.375 21.21875 43.90625 26.417969 40.675781 29.117188 C 40.453125 29.074219 40.25 29 40 29 C 37.800781 29 36 30.800781 36 33 C 36 35.199219 37.800781 37 40 37 C 42.199219 37 44 35.199219 44 33 C 44 32.75 43.925781 32.546875 43.882812 32.324219 C 46.582031 29.09375 51.78125 22.625 51.78125 22.625 C 52.023438 22.316406 52.066406 21.894531 51.886719 21.542969 C 51.707031 21.191406 51.339844 20.980469 50.945312 21.003906 Z M 22.804688 22.003906 C 22.414062 21.953125 22.019531 22.140625 21.8125 22.5 C 21.539062 22.96875 21.699219 23.582031 22.179688 23.859375 C 22.328125 23.949219 22.507812 24 22.679688 24 C 23.019531 24 23.359375 23.820312 23.539062 23.5 C 23.820312 23.019531 23.660156 22.410156 23.179688 22.132812 C 23.058594 22.0625 22.933594 22.019531 22.804688 22.003906 Z M 57.195312 22.003906 C 57.066406 22.019531 56.941406 22.0625 56.820312 22.132812 C 56.339844 22.398438 56.179688 23.019531 56.460938 23.492188 L 56.460938 23.5 C 56.640625 23.820312 56.980469 23.992188 57.320312 23.992188 C 57.492188 23.992188 57.671875 23.949219 57.820312 23.859375 C 58.300781 23.582031 58.460938 22.96875 58.1875 22.492188 C 57.980469 22.136719 57.585938 21.953125 57.195312 22.003906 Z M 59.457031 26.820312 C 59.328125 26.804688 59.191406 26.8125 59.0625 26.847656 C 58.53125 26.992188 58.210938 27.539062 58.347656 28.066406 C 58.46875 28.519531 58.878906 28.8125 59.320312 28.808594 C 59.410156 28.808594 59.488281 28.800781 59.582031 28.78125 C 60.109375 28.640625 60.429688 28.089844 60.289062 27.546875 C 60.183594 27.152344 59.84375 26.871094 59.457031 26.820312 Z M 20.539062 26.824219 C 20.148438 26.878906 19.816406 27.152344 19.710938 27.558594 C 19.570312 28.089844 19.890625 28.636719 20.417969 28.78125 C 20.511719 28.808594 20.589844 28.816406 20.679688 28.816406 C 21.121094 28.816406 21.519531 28.519531 21.640625 28.082031 L 21.640625 28.066406 C 21.789062 27.539062 21.46875 26.992188 20.9375 26.847656 C 20.804688 26.816406 20.667969 26.804688 20.539062 26.824219 Z M 44.054688 28.945312 C 43.191406 30 42.6875 30.652344 42.0625 31.390625 C 41.835938 31.660156 41.765625 32.027344 41.882812 32.359375 C 41.957031 32.585938 42 32.796875 42 33 C 42 34.117188 41.117188 35 40 35 C 38.882812 35 38 34.117188 38 33 C 38 31.882812 38.882812 31 40 31 C 40.203125 31 40.414062 31.042969 40.640625 31.117188 C 40.972656 31.234375 41.339844 31.164062 41.609375 30.9375 C 42.347656 30.3125 43 29.808594 44.050781 28.945312 Z M 24 32 C 23.449219 32 23 32.449219 23 33 C 23 33.550781 23.449219 34 24 34 C 24.550781 34 25 33.550781 25 33 C 25 32.449219 24.550781 32 24 32 Z M 56 32 C 55.449219 32 55 32.449219 55 33 C 55 33.550781 55.449219 34 56 34 C 56.550781 34 57 33.550781 57 33 C 57 32.449219 56.550781 32 56 32 Z M 20.097656 32.007812 C 19.804688 31.976562 19.5 32.078125 19.289062 32.289062 C 19.199219 32.390625 19.128906 32.5 19.078125 32.621094 C 19.03125 32.738281 19 32.871094 19 33 C 19 33.269531 19.097656 33.519531 19.289062 33.710938 C 19.390625 33.800781 19.5 33.871094 19.617188 33.921875 C 19.738281 33.96875 19.871094 34 20 34 C 20.269531 34 20.519531 33.898438 20.710938 33.710938 C 20.800781 33.609375 20.871094 33.5 20.917969 33.382812 C 20.96875 33.261719 21 33.128906 21 33 C 21 32.871094 20.96875 32.738281 20.917969 32.621094 C 20.871094 32.5 20.800781 32.390625 20.710938 32.289062 C 20.609375 32.199219 20.511719 32.128906 20.378906 32.082031 C 20.289062 32.039062 20.195312 32.015625 20.097656 32.007812 Z M 59.90625 32.007812 C 59.808594 32.015625 59.710938 32.039062 59.621094 32.082031 C 59.5 32.128906 59.390625 32.199219 59.289062 32.289062 C 59.199219 32.390625 59.128906 32.5 59.082031 32.621094 C 59.03125 32.738281 59 32.871094 59 33 C 59 33.128906 59.03125 33.261719 59.082031 33.382812 C 59.128906 33.5 59.199219 33.609375 59.289062 33.710938 C 59.382812 33.804688 59.496094 33.875 59.617188 33.925781 C 59.734375 33.976562 59.863281 34 60 34 C 60.128906 34 60.261719 33.96875 60.382812 33.921875 C 60.5 33.871094 60.609375 33.800781 60.710938 33.710938 C 60.800781 33.609375 60.871094 33.5 60.921875 33.382812 C 60.980469 33.261719 61 33.128906 61 33 C 61 32.738281 60.890625 32.476562 60.710938 32.289062 C 60.5 32.078125 60.199219 31.976562 59.90625 32.003906 Z M 20.8125 37.191406 C 20.6875 37.175781 20.550781 37.179688 20.417969 37.21875 C 19.890625 37.359375 19.570312 37.910156 19.710938 38.4375 C 19.832031 38.890625 20.238281 39.179688 20.679688 39.179688 C 20.757812 39.179688 20.847656 39.167969 20.9375 39.148438 C 21.46875 39.007812 21.789062 38.460938 21.648438 37.929688 C 21.539062 37.523438 21.199219 37.242188 20.8125 37.191406 Z M 59.1875 37.191406 C 58.800781 37.242188 58.464844 37.523438 58.359375 37.929688 C 58.214844 38.464844 58.535156 39.007812 59.0625 39.148438 C 59.152344 39.167969 59.242188 39.179688 59.320312 39.179688 C 59.761719 39.179688 60.167969 38.890625 60.289062 38.4375 C 60.429688 37.910156 60.109375 37.359375 59.578125 37.21875 C 59.449219 37.183594 59.3125 37.175781 59.183594 37.191406 Z M 22.558594 42.011719 C 22.429688 42.027344 22.300781 42.070312 22.179688 42.140625 C 21.699219 42.410156 21.539062 43.03125 21.8125 43.511719 L 21.8125 43.5 C 22 43.820312 22.328125 44 22.679688 44 C 22.851562 44 23.019531 43.960938 23.179688 43.867188 C 23.648438 43.589844 23.820312 42.980469 23.539062 42.5 C 23.335938 42.140625 22.941406 41.960938 22.554688 42.011719 Z M 57.441406 42.011719 C 57.058594 41.960938 56.664062 42.140625 56.460938 42.5 C 56.179688 42.980469 56.339844 43.589844 56.820312 43.867188 C 56.980469 43.960938 57.148438 44 57.320312 44 C 57.671875 44 58 43.820312 58.1875 43.5 C 58.460938 43.03125 58.300781 42.410156 57.820312 42.140625 C 57.699219 42.070312 57.570312 42.027344 57.441406 42.007812 Z M 25.855469 46.140625 C 25.601562 46.140625 25.34375 46.238281 25.152344 46.4375 C 24.761719 46.820312 24.761719 47.460938 25.152344 47.847656 C 25.351562 48.039062 25.597656 48.140625 25.859375 48.140625 C 26.109375 48.140625 26.371094 48.039062 26.5625 47.847656 C 26.949219 47.460938 26.949219 46.820312 26.5625 46.4375 C 26.367188 46.238281 26.109375 46.140625 25.855469 46.140625 Z M 54.144531 46.140625 C 53.890625 46.140625 53.632812 46.238281 53.4375 46.4375 C 53.050781 46.820312 53.050781 47.460938 53.4375 47.847656 C 53.628906 48.039062 53.890625 48.140625 54.140625 48.140625 C 54.402344 48.140625 54.648438 48.039062 54.847656 47.847656 C 55.238281 47.460938 55.238281 46.820312 54.847656 46.4375 C 54.65625 46.238281 54.398438 46.140625 54.144531 46.140625 Z M 49.878906 49.328125 C 49.746094 49.339844 49.621094 49.382812 49.5 49.449219 L 49.5 49.460938 C 49.019531 49.730469 48.859375 50.339844 49.140625 50.820312 C 49.320312 51.140625 49.660156 51.320312 50.007812 51.320312 C 50.179688 51.320312 50.351562 51.28125 50.507812 51.191406 C 50.980469 50.910156 51.148438 50.296875 50.867188 49.820312 C 50.660156 49.460938 50.265625 49.28125 49.878906 49.328125 Z M 30.121094 49.332031 C 29.734375 49.277344 29.339844 49.460938 29.132812 49.816406 C 28.851562 50.296875 29.019531 50.910156 29.5 51.1875 C 29.648438 51.28125 29.832031 51.316406 29.988281 51.316406 C 30.339844 51.316406 30.679688 51.136719 30.859375 50.816406 C 31.140625 50.339844 30.980469 49.730469 30.5 49.460938 C 30.378906 49.390625 30.253906 49.347656 30.121094 49.328125 Z M 35 58.511719 C 36.617188 58.828125 38.289062 59 40 59 C 41.710938 59 43.382812 58.828125 45 58.511719 L 45 73 L 35 73 Z M 21 64 C 20.449219 64 20 64.449219 20 65 C 20 65.550781 20.449219 66 21 66 C 21.550781 66 22 65.550781 22 65 C 22 64.449219 21.550781 64 21 64 Z M 59 64 C 58.449219 64 58 64.449219 58 65 C 58 65.550781 58.449219 66 59 66 C 59.550781 66 60 65.550781 60 65 C 60 64.449219 59.550781 64 59 64 Z M 21 68 C 20.449219 68 20 68.449219 20 69 C 20 69.550781 20.449219 70 21 70 C 21.550781 70 22 69.550781 22 69 C 22 68.449219 21.550781 68 21 68 Z M 59 68 C 58.449219 68 58 68.449219 58 69 C 58 69.550781 58.449219 70 59 70 C 59.550781 70 60 69.550781 60 69 C 60 68.449219 59.550781 68 59 68 Z M 59 68 "/>
</g>
</svg>
